' "Chaos, Fractals and the Atari ST" Support Disc
' LISTING 7.1 (c)1991 Conrad Bessant
'
@Check_res
'
For Y=47 To 0 Step -1
  For X=0 To 47
    @Fplot(X*5+Y*1.7,148-Y)
  Next X
Next Y
@Waitmouse
'
' The procedure definitions below have been included from appendix A of the book
'
Procedure Check_res
  Res%=Xbios(4)
  If Res%=1      !Medium resolution not supported
    Alert 3,"This program only|works in high or|low resolution modes.",1,"  Abort  ",Dummy
    Edit        !Quit back to editor (leave program if compiled)
  Else
    Monitor=Res%/2+1
  Endif
Return
'
Procedure Fplot(X,Y)
  Xp=X*Monitor
  Yp=Y*Monitor
  Plot Int(Xp)+Int(Frac(Xp)*2),Int(Yp)+Int(Frac(Yp)*2)
Return
'
Procedure Waitmouse
  Repeat
  Until Mousek>0
Return
