' "Chaos, Fractals and the Atari ST" Support Disc
' LISTING 7.3 (c)1991 Conrad Bessant
'
@Check_res
'
Rem Set up arrays
Dim Poly_x%(95)
Dim Poly_y%(95)
Dim Z%(47,47)
'
Rem Set height of point
Z%(23,23)=20
'
Rem Draw landscape
Gosub Landscape
@Waitmouse
'
Rem The procedure definition for landscape has been included from listing 7.2
'
Procedure Landscape
  Cls
  Deffill 1,0
  Hidem
  '
  For Y=47 To 0 Step -1
    For X=0 To 47
      Poly_x%(X)=X*5*Monitor
      Poly_y%(X)=-Z%(X,Y)*Monitor
    Next X
    If Y<47
      For X=0 To 47
        Poly_x%(95-X)=X*5*Monitor+1.7*Monitor
        Poly_y%(95-X)=-Z%(X,Y+1)*Monitor-Monitor
      Next X
      Polyfill 96,Poly_x%(),Poly_y%() Offset Y*1.7*Monitor,(148-Y)*Monitor
      Rem Enhancements may be added here (see text)
    Else
      Polyline 48,Poly_x%(),Poly_y%() Offset Y*1.7*Monitor,(148-Y)*Monitor
    Endif
  Next Y
Return
'
' The procedure definitions below have been included from appendix A of the book
'
Procedure Check_res
  Res%=Xbios(4)
  If Res%=1      !Medium resolution not supported
    Alert 3,"This program only|works in high or|low resolution modes.",1,"  Abort  ",Dummy
    Edit        !Quit back to editor (leave program if compiled)
  Else
    Monitor=Res%/2+1
  Endif
Return
'
Procedure Waitmouse
  Repeat
  Until Mousek>0
Return
'
