' "Chaos, Fractals and the Atari ST" Support Disc
' LISTING 2.1 (c)1991 Conrad Bessant
'
@Check_res      !Get screen mode
'
Rem Dimension arrays to hold the vertex positions
Dim X(2)
Dim Y(2)
'
Rem Set positions of the three vertices
X(0)=160
Y(0)=10
X(1)=25
Y(1)=190
X(2)=295
Y(2)=190
'
Hidem
'
Rem Pick a vertex at random
Vertex=Int(Rnd*3)
Px=X(Vertex)
Py=Y(Vertex)
'
Repeat
  Vertex=Int(Rnd*3)      !Pick vertex at random
  Px=Px+(X(Vertex)-Px)/2 !Move to mid point of vertex
  Py=Py+(Y(Vertex)-Py)/2 !held in vertex variable
  @Fplot(Px,Py)
Until Mousek>0
'
' The procedure definitions below have been included from appendix A of the book
'
Procedure Check_res
  Res%=Xbios(4)
  If Res%=1      !Medium resolution not supported
    Alert 3,"This program only|works in high or|low resolution modes.",1,"  Abort  ",Dummy
    Edit        !Quit back to editor (leave program if compiled)
  Else
    Monitor=Res%/2+1
  Endif
Return
'
Procedure Fplot(X,Y)
  Xp=X*Monitor
  Yp=Y*Monitor
  Plot Int(Xp)+Int(Frac(Xp)*2),Int(Yp)+Int(Frac(Yp)*2)
Return
