' "Chaos, Fractals and the Atari ST" Support Disc
' LISTING 2.2 (c)1991 Conrad Bessant
'
@Check_res
Input "Contamination constant, c:",C
P=0.3
@Fplot(0,200-P*140)
For Week=1 To 80
  P=P+C*P*(1-P)
  @Fdraw(Week*4,200-P*140)
Next Week
@Waitmouse
'
' The procedure definitions below have been included from appendix A of the book
'
Procedure Check_res
  Res%=Xbios(4)
  If Res%=1      !Medium resolution not supported
    Alert 3,"This program only|works in high or|low resolution modes.",1,"  Abort  ",Dummy
    Edit        !Quit back to editor (leave program if compiled)
  Else
    Monitor=Res%/2+1
  Endif
Return
'
Procedure Fplot(X,Y)
  Xp=X*Monitor
  Yp=Y*Monitor
  Plot Int(Xp)+Int(Frac(Xp)*2),Int(Yp)+Int(Frac(Yp)*2)
Return
'
Procedure Fdraw(X,Y)
  Xp=X*Monitor
  Yp=Y*Monitor
  Draw  To Int(Xp)+Int(Frac(Xp)*2),Int(Yp)+Int(Frac(Yp)*2)
Return
'
Procedure Waitmouse
  Repeat
  Until Mousek>0
Return
'
