' "Chaos, Fractals and the Atari ST" Support Disc
' LISTING 8.1 (c)1991 Conrad Bessant
'
@Check_res
'
Rem Request constants
Input "a=",A
Input "b=",B
Input "c=",C
Cls
'
Rem Set initial values for variables
X=0
Y=0
I=0
'
Hidem
'
Rem Nested loops to draw fractal and check for mouse button
Repeat
  Repeat
    '
    Rem Perform Martin process
    Xnew=Y-Sgn(X)*Sqr(Abs(B*X-C))
    Ynew=A-X
    X=Xnew
    Y=Ynew
    '
    @Fplot(150+X*0.4,100-Y*0.4)    !Plot point
    Inc I                          !Increment iteration count
  Until Mousek>0                   !If mouse button is pressed...
  Message$="Iterations:"+Str$(I)+"| |Do you want to leave|the program?"
  Alert 1,Message$,2,"Yes|No",Button    !Display alert box
Until Button=1                     !If user selects YES...
Edit                               !return to editing screen
'
' The procedure definitions below have been included from appendix A of the book
'
Procedure Check_res
  Res%=Xbios(4)
  If Res%=1      !Medium resolution not supported
    Alert 3,"This program only|works in high or|low resolution modes.",1,"  Abort  ",Dummy
    Edit        !Quit back to editor (leave program if compiled)
  Else
    Monitor=Res%/2+1
  Endif
Return
'
Procedure Fplot(X,Y)
  Xp=X*Monitor
  Yp=Y*Monitor
  Plot Int(Xp)+Int(Frac(Xp)*2),Int(Yp)+Int(Frac(Yp)*2)
Return
'
Procedure Waitmouse
  Repeat
  Until Mousek>0
Return
