' "Chaos, Fractals and the Atari ST" Support Disc
' LISTING 6.2 (c)1991 Conrad Bessant
'
@Check_res
'
Plant$="1"
One$="11[1[1[1]]]"
Unit_length=2                        !Set up unit length...
Unit_angle=Pi/16                     !...and unit angle
'
Repeat
  Cls
  Gosub Draw_plant                   !Draw plant so far
  Showm
  @Waitmouse                         !Wait for mouse key
  Hidem
  Gosub Replace_chars                !Make plant grow
Until Mousek=2
'
Procedure Draw_plant
  Angle_count=0                      !Initialise angle count
  Pointer=0                          !Set up initial string pointer position
  Gosub Draw_branch(160,180)
Return
'
Procedure Draw_branch(X,Y)
  Inc Pointer                        !Increment pointer position and...
  Character$=Mid$(Plant$,Pointer,1)  !...note character in that position
  '
  Repeat
    If Character$="1"                !If the character is a 1, draw a segment
      @Fplot(X,Y)
      X=X+Sin(Angle_count)*Unit_length
      Y=Y-Cos(Angle_count)*Unit_length
      @Fdraw(X,Y)
    Endif
    '
    If Character$="["                !If it's a [ then branch off
      Add Angle_count,Unit_angle
      Gosub Draw_branch(X,Y)
    Endif
    Inc Pointer                      !Note next character
    Character$=Mid$(Plant$,Pointer,1)
  Until Character$="]" Or Character$=""
  '
  Sub Angle_count,Unit_angle         !If it's a ] (end of branch) then
Return                               !decrease angle count and return
'
Procedure Replace_chars
  Pointer=0                          !Set initial pointer position
  Repeat
    Inc Pointer                      !Increment pointer position
    Character$=Mid$(Plant$,Pointer,1)!Extract character
    If Character$="1"                !If it's a 1 then replace it with one$
      Newplant$=Newplant$+One$
    Else
      Newplant$=Newplant$+Character$ !Otherwise leave it unchanged
    Endif
  Until Pointer=Len(Plant$)
  Plant$=Newplant$                   !Replace old plant$ with new one
  Newplant$=""                       !Clear newplant$ just in case
Return
'
' The procedure definitions below have been included from appendix A of the book
'
Procedure Check_res
  Res%=Xbios(4)
  If Res%=1      !Medium resolution not supported
    Alert 3,"This program only|works in high or|low resolution modes.",1,"  Abort  ",Dummy
    Edit        !Quit back to editor (leave program if compiled)
  Else
    Monitor=Res%/2+1
  Endif
Return
'
Procedure Fplot(X,Y)
  Xp=X*Monitor
  Yp=Y*Monitor
  Plot Int(Xp)+Int(Frac(Xp)*2),Int(Yp)+Int(Frac(Yp)*2)
Return
'
Procedure Fdraw(X,Y)
  Xp=X*Monitor
  Yp=Y*Monitor
  Draw  To Int(Xp)+Int(Frac(Xp)*2),Int(Yp)+Int(Frac(Yp)*2)
Return
'
Procedure Waitmouse
  Repeat
  Until Mousek>0
Return
'
